Lab2_b12902110/Lab2_1/simulation/qsim/SD.msim.vcd
$comment
	File created using the following command:
		vcd file SD.msim.vcd -direction
$end
$date
	Wed Dec 06 00:25:18 2023
$end
$version
	ModelSim Version 10.1d
$end
$timescale
	1ps
$end
$scope module SD_vlg_vec_tst $end
$var reg 1 ! clk $end
$var reg 1 " rst_n $end
$var reg 1 # X $end
$var wire 1 $ Z $end
$var wire 1 % sampler $end
$scope module i1 $end
$var wire 1 & gnd $end
$var wire 1 ' vcc $end
$var wire 1 ( unknown $end
$var tri1 1 ) devclrn $end
$var tri1 1 * devpor $end
$var tri1 1 + devoe $end
$var wire 1 , Z~output_o $end
$var wire 1 - clk~input_o $end
$var wire 1 . clk~inputclkctrl_outclk $end
$var wire 1 / X~input_o $end
$var wire 1 0 inst1|inst~combout $end
$var wire 1 1 rst_n~input_o $end
$var wire 1 2 rst_n~inputclkctrl_outclk $end
$var wire 1 3 Q0|inst~q $end
$var wire 1 4 inst9|inst~combout $end
$var wire 1 5 Q1|inst~q $end
$var wire 1 6 inst7|inst~0_combout $end
$var wire 1 7 Q2|inst~q $end
$var wire 1 8 inst15|inst~0_combout $end
$upscope $end
$upscope $end
$enddefinitions $end
#0
$dumpvars
0!
0"
0#
0$
x%
0&
1'
x(
1)
1*
1+
0,
0-
0.
0/
10
01
02
03
04
05
06
07
08
$end
#10000
1!
1-
1.
0%
#20000
0!
0-
0.
1%
#30000
1!
1-
1.
0%
#40000
1"
0!
11
0-
12
0.
1%
#50000
1!
1-
1.
0%
13
#60000
1#
0!
1/
0-
0.
1%
14
00
#70000
1!
1-
1.
0%
15
03
10
#80000
0!
0-
0.
1%
#90000
1!
1-
1.
0%
13
16
04
00
18
1,
1$
#100000
0!
0-
0.
1%
#110000
1!
1-
1.
0%
17
05
03
08
0,
0$
#120000
0!
0-
0.
1%
#130000
1!
1-
1.
0%
#140000
0#
0!
0/
0-
0.
1%
10
#150000
1!
1-
1.
0%
13
06
#160000
0!
0-
0.
1%
#170000
1!
1-
1.
0%
07
#180000
0!
0-
0.
1%
#190000
1!
1-
1.
0%
#200000
1#
0!
1/
0-
0.
1%
14
00
#210000
1!
1-
1.
0%
15
03
10
#220000
0#
0!
0/
0-
0.
1%
16
04
#230000
1!
1-
1.
0%
17
05
13
06
#240000
1#
0!
1/
0-
0.
1%
16
14
00
#250000
1!
1-
1.
0%
15
03
06
10
18
1,
1$
#260000
0#
0!
0/
0-
0.
1%
16
04
#270000
1!
1-
1.
0%
05
13
06
08
0,
0$
#280000
0!
0-
0.
1%
#290000
1!
1-
1.
0%
07
#300000
1#
0!
1/
0-
0.
1%
14
00
#310000
1!
1-
1.
0%
15
03
10
#320000
0#
0!
0/
0-
0.
1%
16
04
#330000
1!
1-
1.
0%
17
05
13
06
#340000
0!
0-
0.
1%
#350000
1!
1-
1.
0%
07
#360000
1#
0!
1/
0-
0.
1%
14
00
#370000
1!
1-
1.
0%
15
03
10
#380000
0!
0-
0.
1%
#390000
1!
1-
1.
0%
13
16
04
00
18
1,
1$
#400000
0#
0!
0/
0-
0.
1%
10
#410000
1!
1-
1.
0%
17
05
06
08
0,
0$
#420000
0!
0-
0.
1%
#430000
1!
1-
1.
0%
07
#440000
0!
0-
0.
1%
#450000
1!
1-
1.
0%
#460000
1#
0!
1/
0-
0.
1%
14
00
#470000
1!
1-
1.
0%
15
03
10
#480000
0!
0-
0.
1%
#490000
1!
1-
1.
0%
13
16
04
00
18
1,
1$
#500000
0!
0-
0.
1%
#510000
1!
1-
1.
0%
17
05
03
08
0,
0$
#520000
0!
0-
0.
1%
#530000
1!
1-
1.
0%
#540000
0!
0-
0.
1%
#550000
1!
1-
1.
0%
#560000
0#
0!
0/
0-
0.
1%
10
#570000
1!
1-
1.
0%
13
06
#580000
1#
0!
1/
0-
0.
1%
16
14
00
#590000
1!
1-
1.
0%
15
03
06
10
18
1,
1$
#600000
0#
0!
0/
0-
0.
1%
16
04
#610000
1!
1-
1.
0%
05
13
06
08
0,
0$
#620000
1#
0!
1/
0-
0.
1%
16
14
00
#630000
1!
1-
1.
0%
15
03
06
10
18
1,
1$
#640000
0!
0-
0.
1%
#650000
1!
1-
1.
0%
07
13
16
04
00
#660000
0!
0-
0.
1%
#670000
1!
1-
1.
0%
17
05
03
08
0,
0$
#680000
0#
0!
0/
0-
0.
1%
10
#690000
1!
1-
1.
0%
13
06
#700000
0!
0-
0.
1%
#710000
1!
1-
1.
0%
07
#720000
0!
0-
0.
1%
#730000
1!
1-
1.
0%
#740000
1#
0!
1/
0-
0.
1%
14
00
#750000
1!
1-
1.
0%
15
03
10
#760000
0!
0-
0.
1%
#770000
1!
1-
1.
0%
13
16
04
00
18
1,
1$
#780000
0#
0!
0/
0-
0.
1%
10
#790000
1!
1-
1.
0%
17
05
06
08
0,
0$
#800000
1#
0!
1/
0-
0.
1%
16
14
00
#810000
1!
1-
1.
0%
15
03
06
10
18
1,
1$
#820000
0#
0!
0/
0-
0.
1%
16
04
#830000
1!
1-
1.
0%
05
13
06
08
0,
0$
#840000
1#
0!
1/
0-
0.
1%
16
14
00
#850000
1!
1-
1.
0%
15
03
06
10
18
1,
1$
#860000
0!
0-
0.
1%
#870000
1!
1-
1.
0%
07
13
16
04
00
#880000
0!
0-
0.
1%
#890000
1!
1-
1.
0%
17
05
03
08
0,
0$
#900000
0#
0!
0/
0-
0.
1%
10
#910000
1!
1-
1.
0%
13
06
#920000
1#
0!
1/
0-
0.
1%
16
14
00
#930000
1!
1-
1.
0%
15
03
06
10
18
1,
1$
#940000
0!
0-
0.
1%
#950000
1!
1-
1.
0%
07
13
16
04
00
#960000
0!
0-
0.
1%
#970000
1!
1-
1.
0%
17
05
03
08
0,
0$
#980000
0#
0!
0/
0-
0.
1%
10
#990000
0"
1!
01
1-
02
1.
0%
07
06
