Lab1_b12902110/Lab1_3/simulation/qsim/MU4.msim.vcd
$comment
	File created using the following command:
		vcd file MU4.msim.vcd -direction
$end
$date
	Fri Nov 10 16:43:20 2023
$end
$version
	ModelSim Version 10.1d
$end
$timescale
	1ps
$end
$scope module MU4_vlg_vec_tst $end
$var reg 4 ! A [3:0] $end
$var reg 4 " B [3:0] $end
$var wire 1 # M [7] $end
$var wire 1 $ M [6] $end
$var wire 1 % M [5] $end
$var wire 1 & M [4] $end
$var wire 1 ' M [3] $end
$var wire 1 ( M [2] $end
$var wire 1 ) M [1] $end
$var wire 1 * M [0] $end
$var wire 1 + sampler $end
$scope module i1 $end
$var wire 1 , gnd $end
$var wire 1 - vcc $end
$var wire 1 . unknown $end
$var tri1 1 / devclrn $end
$var tri1 1 0 devpor $end
$var tri1 1 1 devoe $end
$var wire 1 2 M[7]~output_o $end
$var wire 1 3 M[6]~output_o $end
$var wire 1 4 M[5]~output_o $end
$var wire 1 5 M[4]~output_o $end
$var wire 1 6 M[3]~output_o $end
$var wire 1 7 M[2]~output_o $end
$var wire 1 8 M[1]~output_o $end
$var wire 1 9 M[0]~output_o $end
$var wire 1 : B[1]~input_o $end
$var wire 1 ; A[3]~input_o $end
$var wire 1 < B[0]~input_o $end
$var wire 1 = A[1]~input_o $end
$var wire 1 > A[0]~input_o $end
$var wire 1 ? A[2]~input_o $end
$var wire 1 @ inst|b2v_inst4|b2v_inst5|inst~3_combout $end
$var wire 1 A inst|b2v_inst4|b2v_inst5|inst~9_combout $end
$var wire 1 B inst1|inst|inst~combout $end
$var wire 1 C inst|b2v_inst3|b2v_inst5|inst~0_combout $end
$var wire 1 D inst|b2v_inst|b2v_inst4|inst~combout $end
$var wire 1 E B[2]~input_o $end
$var wire 1 F inst3|inst3|inst~combout $end
$var wire 1 G inst3|inst2|inst~combout $end
$var wire 1 H inst|b2v_inst3|b2v_inst|inst1~combout $end
$var wire 1 I inst|b2v_inst4|b2v_inst|inst1~4_combout $end
$var wire 1 J inst|b2v_inst4|b2v_inst|inst1~5_combout $end
$var wire 1 K inst6|b2v_inst4|b2v_inst5|inst~0_combout $end
$var wire 1 L inst|b2v_inst|b2v_inst|inst1~combout $end
$var wire 1 M inst6|b2v_inst3|b2v_inst5|inst~0_combout $end
$var wire 1 N inst6|b2v_inst|b2v_inst5|inst~0_combout $end
$var wire 1 O B[3]~input_o $end
$var wire 1 P inst6|b2v_inst|b2v_inst|inst1~combout $end
$var wire 1 Q inst4|inst3|inst~combout $end
$var wire 1 R inst6|b2v_inst4|b2v_inst|inst1~combout $end
$var wire 1 S inst4|inst2|inst~combout $end
$var wire 1 T inst6|b2v_inst3|b2v_inst|inst1~combout $end
$var wire 1 U inst7|b2v_inst4|b2v_inst5|inst~0_combout $end
$var wire 1 V inst7|b2v_inst3|b2v_inst5|inst~0_combout $end
$var wire 1 W inst7|b2v_inst|b2v_inst5|inst~0_combout $end
$var wire 1 X inst7|b2v_inst|b2v_inst|inst1~0_combout $end
$var wire 1 Y inst7|b2v_inst3|b2v_inst|inst1~combout $end
$var wire 1 Z inst7|b2v_inst4|b2v_inst|inst1~combout $end
$var wire 1 [ inst7|b2v_inst5|b2v_inst|inst~combout $end
$var wire 1 \ inst6|b2v_inst5|b2v_inst|inst~combout $end
$var wire 1 ] inst|b2v_inst5|b2v_inst|inst~combout $end
$var wire 1 ^ inst1|inst3|inst~combout $end
$upscope $end
$upscope $end
$enddefinitions $end
#0
$dumpvars
b101 !
b1010 "
0*
1)
0(
0'
1&
1%
0$
0#
x+
0,
1-
x.
1/
10
11
02
03
14
15
06
07
18
09
1:
0;
0<
0=
1>
1?
1@
0A
0B
0C
0D
0E
0F
0G
1H
0I
0J
0K
0L
0M
0N
1O
0P
1Q
1R
0S
0T
0U
0V
0W
0X
1Y
1Z
0[
0\
1]
0^
$end
#20000
b1101 !
b1001 !
b1011 !
b1010 !
b1000 "
0:
0>
1=
0?
1;
0+
0H
0Q
0@
1S
0]
1[
0Y
1X
0R
08
16
04
13
0)
1'
0%
1$
0[
06
0'
#40000
b1011 !
b1010 "
1:
1>
1+
1L
1I
1Q
1@
1]
1[
1T
1J
18
16
1)
1'
1U
0Z
1\
05
17
0&
1(
1Y
14
1%
#60000
b1110 "
b1111 "
b1111 !
b1101 "
1?
1<
0:
1E
0+
1V
0T
1M
0J
0I
1B
0L
1P
1G
1F
0Y
1^
0\
0U
0P
1N
1R
1J
1H
1T
0M
04
19
07
0%
1*
0(
0X
1W
1Z
1\
1Y
0V
1U
1K
1P
0N
03
12
15
17
14
0$
1#
1&
1(
1%
1X
0[
0\
1V
0T
1M
13
06
07
1$
0'
0(
0W
0P
1N
02
0#
0X
1W
0Z
03
12
05
0$
1#
0&
0Y
1X
04
13
0%
1$
#80000
b1001 "
b1000 "
b1011 !
b1010 "
0?
0<
1:
0E
1+
0V
1T
0M
0J
1I
0B
1L
1P
0N
0G
0F
1Y
0^
1\
0P
0K
1J
0H
0T
1M
1V
14
09
17
1%
0*
1(
0W
1Z
0\
0Y
0V
1T
0M
0R
1P
02
15
07
04
0#
1&
0(
0%
1Y
1\
0Z
0X
1W
0P
1V
14
17
05
03
12
1%
1(
0&
0$
1#
1X
0W
1[
0Y
0V
13
02
16
04
1$
0#
1'
0%
1Y
0X
1W
14
03
12
1%
0$
1#
1X
0W
13
02
1$
0#
#100000
b1001 !
b1110 "
b1100 "
0:
1E
0=
0+
0L
0I
1P
1F
0S
0J
0]
0\
0T
1V
0U
08
07
0)
0(
0Y
1Z
1\
0V
04
15
17
0%
1&
1(
0Z
0X
1W
1Y
05
03
12
14
0&
0$
1#
1%
1X
0W
13
02
1$
0#
#120000
b1101 !
b1110 "
1:
1?
1+
1L
1H
1V
1T
1]
0Y
0T
1M
1R
18
04
1)
0%
0X
1W
1Z
0P
1N
03
12
15
0$
1#
1&
0[
0V
06
0'
1Y
1X
14
13
1%
1$
0X
03
0$
#140000
b110 "
b1100 !
b1000 !
0>
0?
0O
0+
0Q
0F
0@
1T
0M
0H
0]
0\
1[
0Y
1X
0W
0R
1P
0N
08
07
16
04
13
02
0)
0(
1'
0%
1$
0#
0[
1Y
0X
06
14
03
0'
1%
0$
#160000
b0 !
b10 "
b1 !
b101 !
0E
1>
1?
0;
1+
0P
1@
1H
0L
1]
1R
0T
18
1)
0Y
04
0%
1[
0Z
16
05
1'
0&
#180000
b11 "
b111 "
1<
1E
0+
1I
1T
1F
1^
1\
1J
19
17
1*
1(
1Z
0R
1K
15
1&
0\
0T
1M
07
0(
0[
1P
06
0'
0Z
05
0&
1Y
14
1%
#200000
b1111 "
b1 !
b1110 "
0?
0<
1O
1+
1T
0M
0J
0H
0I
1Q
0^
1[
0P
0K
09
16
0*
1'
1Z
1\
0T
15
17
1&
1(
0Y
04
0%
0Z
05
0&
#220000
b11 !
b1100 "
b1011 !
b1000 "
b0 "
b1 "
1<
0:
0E
0O
1=
1;
0+
1B
0F
0Q
1^
0\
0[
1H
19
07
06
1*
0(
0'
1R
1[
16
1'
#240000
b1010 !
b0 "
0<
0>
1+
0B
0@
0^
0]
0H
09
08
0*
0)
0R
0[
06
0'
#260000
b1110 !
b1100 !
b10 "
b110 "
b1110 "
b1101 !
1:
1E
1O
1>
0=
1?
0+
1L
1H
1T
1P
1F
1Q
1@
1]
1\
1[
1Y
1X
0T
1M
1R
1V
18
17
16
14
13
1)
1(
1'
1%
1$
1Z
0Y
0P
1N
15
04
1&
0%
0[
0X
1W
0V
06
03
12
0'
0$
1#
1Y
1X
14
13
1%
1$
0X
03
0$
#280000
b1111 "
b1001 !
b1011 !
b1011 "
b11 "
1=
0?
1<
0E
0O
1+
1A
1T
0M
0H
1B
1P
0N
0F
0Q
0]
0Y
1^
0\
1[
1X
0W
1C
0P
0R
08
04
19
07
16
13
02
0)
0%
1*
0(
1'
1$
0#
1Y
0X
0L
1D
14
03
1%
0$
0Y
0[
0T
1P
04
06
0%
0'
0Z
1Y
05
14
0&
1%
#300000
b11 !
b1 "
b0 "
b111 !
b101 !
b100 "
0<
0:
1E
0=
1?
0;
0+
0B
0A
1L
0D
1T
1F
0^
1\
0C
0T
1M
0P
09
17
0*
1(
1Z
0L
1P
15
1&
0Z
0Y
1T
0M
05
04
0&
0%
1Y
0P
14
1%
1Z
15
1&
0Y
04
0%
#320000
b100 !
b101 "
1<
0>
1+
1I
0F
0\
1J
07
0(
1\
17
1(
#340000
b1101 "
b1100 !
b1110 !
1=
1;
1O
0+
1S
0J
0I
1G
1P
1B
1]
1X
1Y
1U
1R
1J
1V
1H
18
13
14
1)
1$
1%
0Z
0\
0Y
0R
1K
05
07
04
0&
0(
0%
1Y
1[
1\
0X
1W
0T
1M
14
16
17
03
12
1%
1'
1(
0$
1#
0[
0U
0P
1N
06
0'
1Z
0V
15
1&
1X
13
1$
0X
03
0$
#360000
b1111 "
b1011 "
b110 !
b100 !
0=
0;
1:
0E
1+
0S
0J
1I
0G
1P
0N
0B
0H
1C
1T
0M
0]
1X
0W
0K
1J
1V
1H
0C
1L
0P
08
13
02
0)
1$
0#
0\
0Y
0X
1R
0L
0V
07
04
03
0(
0%
0$
1\
1X
1Y
0T
17
13
14
1(
1$
1%
1[
0X
16
03
1'
0$
0Z
05
0&
#380000
b1111 "
1E
0+
1T
1Z
15
1&
#400000
b0 !
b1 !
b1110 "
b1100 "
b1001 !
b1011 !
0<
0:
1>
1=
0?
1;
1+
0I
0H
1Q
1F
1S
1G
0T
1P
0\
0[
0Y
1X
0J
0R
1K
1U
07
06
04
13
0(
0'
0%
1$
0Z
1Y
1R
0K
0U
1T
1V
05
14
0&
1%
1\
1[
1Z
0Y
1U
0T
0V
17
16
15
04
1(
1'
1&
0%
0[
1Y
0X
1W
1V
06
14
03
12
0'
1%
0$
1#
0Y
0Z
1X
0W
04
05
13
02
0%
0&
1$
0#
0X
1W
03
12
0$
1#
#420000
b100 "
b0 "
b1111 !
b1110 !
b1 "
0>
1?
1<
0E
0O
0+
0Q
0F
1J
1B
0P
0G
0S
1]
0\
1[
1X
0W
0U
0R
1H
0V
18
07
16
13
02
1)
0(
1'
1$
0#
1\
1Y
1R
17
14
1(
1%
0Y
0[
0X
04
06
03
0%
0'
0$
1[
16
1'
#440000
b11 "
b110 !
b111 "
b10 !
b11 !
1>
0?
0;
1:
1E
1+
1F
0J
0B
1A
1G
1^
0]
0\
0R
1K
19
08
07
1*
0)
0(
1\
1T
17
1(
0[
06
0'
1Z
15
1&
#460000
b1 !
b110 "
b1001 !
b1101 !
b1100 !
0<
0>
0=
1?
1;
0+
0A
0F
0G
0T
1M
0H
1C
1P
1L
0^
0\
1H
0C
0K
0P
1N
0L
1D
1T
09
07
0*
0(
0Z
1Y
1R
1L
0D
0M
1P
05
14
0&
1%
0Y
1X
1Z
0T
1M
0N
04
13
15
0%
1$
1&
1[
1Y
0P
1N
16
14
1'
1%
0Z
0X
05
03
0&
0$
0Y
1X
04
13
0%
1$
#480000
b100 "
b0 "
b1 "
b1000 !
b1001 !
1>
0?
1<
0:
0E
1+
1I
1T
0M
0H
1B
0L
1P
0N
1^
0P
0R
1H
0T
19
1*
1Z
1Y
0X
1R
15
14
03
1&
1%
0$
0Y
0[
0Z
04
06
05
0%
0'
0&
1[
16
1'
#500000
b1 !
0;
0+
0B
0H
0R
0[
06
0'
#520000
b11 "
b111 "
b110 "
b101 !
b100 !
b1100 !
0>
1?
1;
0<
1:
1E
1+
0I
1T
1H
1P
1L
0^
1R
0T
1M
09
0*
1Z
1Y
0P
1N
15
14
1&
1%
1[
0Z
16
05
1'
0&
0Y
1X
04
13
0%
1$
#540000
b100 "
b0 "
b1101 !
1>
0:
0E
0+
0L
0H
1T
1P
0N
0M
0T
0R
0P
1Z
1Y
0X
15
14
03
1&
1%
0$
0Z
0[
0Y
05
06
04
0&
0'
0%
#560000
b1111 !
b111 !
b100 "
1E
1=
0;
1+
1T
1G
1F
1\
1R
17
1(
1Z
15
1&
1[
16
1'
#580000
b1100 "
b1110 "
b110 !
b100 !
b1010 "
0>
0=
1:
0E
1O
0+
0F
0G
1H
0T
0\
1Y
07
14
0(
1%
0Z
05
0&
#600000
b1011 "
b1100 !
b11 "
b1110 !
b111 "
1=
1;
1<
1E
0O
1+
1J
1I
1G
1A
1P
1L
1B
1T
1]
0Y
0R
1K
0J
1C
0T
1M
18
04
1)
0%
1\
1Y
1Z
1T
0L
1D
0P
1N
17
14
15
1(
1%
1&
0[
0Z
0\
0T
1P
06
05
07
0'
0&
0(
1Z
0Y
1X
15
04
13
1&
0%
1$
0Z
1Y
05
14
0&
1%
#620000
b110 "
b110 !
0;
0<
0+
0P
1L
0D
0B
1J
0A
0]
1T
1P
0N
0C
08
0)
0Y
1\
0L
04
17
0%
1(
1Z
1Y
0X
0T
15
14
03
1&
1%
0$
0Z
05
0&
#640000
b1110 "
b100 !
b1010 "
0=
0E
1O
1+
0J
0I
0G
1T
0M
1V
0Y
1R
0K
0P
04
0%
0\
1Z
1X
0T
0V
07
15
13
0(
1&
1$
1[
1Y
16
14
1'
1%
0Z
0X
05
03
0&
0$
#660000
b0 !
b1000 "
b1000 !
b0 "
b1010 !
b100 "
0:
1E
0O
1=
0?
1;
0+
0H
1P
1G
0@
0Y
04
0%
1Y
14
1%
#680000
b1011 !
b101 "
b111 "
b11 !
b1111 "
b1 !
b1011 "
1<
1:
0E
1O
1>
0=
0;
1+
1I
0P
0G
1Q
1@
1^
1]
0[
0R
19
18
06
1*
1)
0'
0Y
1Z
04
15
0%
1&
1[
0Z
16
05
1'
0&
#700000
b101 !
b1001 "
0:
1?
0+
1J
0]
1Y
08
14
0)
1%
1\
17
1(
#720000
b100 !
b1000 "
b1100 !
b1110 !
b1100 "
b1010 !
0<
1E
0>
1=
0?
1;
1+
0I
1P
1G
0Q
0@
1S
0^
0[
0Y
1X
0J
1R
09
06
04
13
0*
0'
0%
1$
1Y
1Z
14
15
1%
1&
0\
1[
07
16
0(
1'
#740000
b100 "
b10 !
b0 "
0;
0E
0O
0+
0P
0G
0S
0X
0R
03
0$
0Y
0Z
04
05
0%
0&
0[
06
0'
#760000
b10 "
b11 "
b110 !
b1011 "
b1110 !
b1111 "
1?
1;
1<
1:
1E
1O
1+
1T
1J
1H
1@
1P
1L
1B
1I
1G
1S
1Y
1X
1]
1U
1K
1A
1V
0T
1M
0H
1C
0J
14
13
18
1%
1$
1)
1\
0Y
1T
1H
0U
0P
1N
1R
0K
0L
1D
17
04
1(
0%
1Y
0X
1W
1Z
0\
1U
0R
1K
0V
0M
1P
14
03
12
15
07
1%
0$
1#
1&
0(
0Z
1X
1[
1V
0T
1M
0P
05
13
16
0&
1$
1'
0[
0X
0U
1P
06
03
0'
0$
1X
1Z
0Y
13
15
04
1$
1&
0%
#780000
b1101 "
b1100 "
b100 "
b110 !
0;
0<
0:
0O
0+
0P
1L
0D
0B
1J
0I
0A
0H
0V
0S
0X
0]
1Y
1T
1P
0N
0C
1R
0K
0J
03
08
14
0$
0)
1%
0Y
1\
1X
0W
0Z
0L
0T
04
17
13
02
05
0%
1(
1$
0#
0&
1Z
1Y
0X
1[
0\
1T
0M
15
14
03
16
07
1&
1%
0$
1'
0(
0Z
0P
05
0&
1Z
15
1&
0Y
04
0%
#800000
b111 !
b101 !
b110 "
b111 "
b1111 "
b1101 !
1<
1:
1O
1>
0=
1;
1+
1I
1B
1L
1H
1Q
1F
0G
1P
1^
1]
0[
1Y
1X
1\
1J
0H
1C
0T
1M
1U
1V
19
18
06
14
13
17
1*
1)
0'
1%
1$
1(
0Z
0Y
0L
1D
0U
0P
1N
05
04
0&
0%
0\
1Z
1Y
0X
1W
1T
0M
1P
0V
07
15
14
03
12
0(
1&
1%
0$
1#
1X
1U
0P
1V
13
1$
0Z
0Y
0X
05
04
03
0&
0%
0$
1X
13
1$
#820000
b1011 "
b1100 !
b1110 !
b1010 "
b10 "
b110 !
0>
1=
0;
0<
0E
0O
0+
0Q
0F
1P
0N
1L
0D
0B
0T
0V
0^
0]
1\
1[
0X
1Y
0U
0R
1V
1T
0P
1H
0C
09
08
17
16
03
14
0*
0)
1(
1'
0$
1%
0Y
0W
0V
1R
0L
04
02
0%
0#
0[
1Z
1X
0T
06
15
13
0'
1&
1$
0X
1[
03
16
0$
1'
0Z
05
0&
#840000
b100 !
b11 "
1<
0=
1+
#860000
b0 !
b111 "
b1111 "
b1000 !
b1010 !
1E
1O
1=
0?
1;
0+
1P
1G
1S
1A
0H
0@
1L
1B
1X
1]
1C
0A
1T
13
18
1$
1)
1Y
1Z
0L
1D
1H
0C
1U
14
15
1%
1&
0Z
0T
0P
1N
0R
1K
1L
0D
1V
05
0&
0Y
0U
0V
1M
1P
0N
04
0%
1Z
1Y
1W
0[
0P
1N
15
14
12
06
1&
1%
1#
0'
0W
02
0#
0Y
0X
1W
04
03
12
0%
0$
1#
#880000
b1101 "
b1011 !
b1100 "
b1000 "
b0 "
b11 !
1>
0;
0<
0:
0E
0O
1+
0I
1@
1P
0N
0L
0B
0G
0S
0]
1X
0W
0J
1T
0M
0H
1R
0K
08
13
02
0)
1$
0#
1Y
0X
0Z
0R
0P
0T
14
03
05
1%
0$
0&
0\
1Z
1[
07
15
16
0(
1&
1'
0[
0Z
0Y
06
05
04
0'
0&
0%
#900000
b1 !
b100 "
b1100 "
1E
1O
0=
0+
1F
1Q
1\
1[
17
16
1(
1'
#920000
b101 !
b1101 !
b1111 !
b100 "
0O
1=
1?
1;
1+
0Q
1G
1T
1P
0[
1R
06
0'
1Z
1Y
15
14
1&
1%
1[
16
1'
#940000
b1011 !
0?
0+
0T
0Z
05
0&
#960000
b110 "
b111 "
b11 !
b1 !
b1111 "
0=
0;
1<
1:
1O
1+
1I
0G
0P
1Q
1]
1^
0[
0R
18
19
06
1)
1*
0'
0Y
1Z
04
15
0%
1&
1[
0Z
16
05
1'
0&
#980000
b0 !
b1101 "
b1100 "
b1000 !
0<
0:
0>
1;
0+
0I
0Q
0F
0@
1P
0^
0]
0\
0[
1X
09
08
07
06
13
0*
0)
0(
0'
1$
1Y
14
1%
#990000
b0 !
0;
1+
0P
0X
03
0$
0Y
04
0%
