Lab2_b12902110/Lab2_3/simulation/qsim/WSC.msim.vcd
$comment
	File created using the following command:
		vcd file WSC.msim.vcd -direction
$end
$date
	Fri Dec 08 22:57:01 2023
$end
$version
	ModelSim Version 10.1d
$end
$timescale
	1ps
$end
$scope module WSC_vlg_vec_tst $end
$var reg 1 ! clk $end
$var reg 1 " load $end
$var reg 1 # rst_n $end
$var reg 1 $ X $end
$var wire 1 % done $end
$var wire 1 & score [3] $end
$var wire 1 ' score [2] $end
$var wire 1 ( score [1] $end
$var wire 1 ) score [0] $end
$var wire 1 * sampler $end
$scope module i1 $end
$var wire 1 + gnd $end
$var wire 1 , vcc $end
$var wire 1 - unknown $end
$var tri1 1 . devclrn $end
$var tri1 1 / devpor $end
$var tri1 1 0 devoe $end
$var wire 1 1 done~output_o $end
$var wire 1 2 score[3]~output_o $end
$var wire 1 3 score[2]~output_o $end
$var wire 1 4 score[1]~output_o $end
$var wire 1 5 score[0]~output_o $end
$var wire 1 6 clk~input_o $end
$var wire 1 7 clk~inputclkctrl_outclk $end
$var wire 1 8 load~input_o $end
$var wire 1 9 inst3|inst2|inst~combout $end
$var wire 1 : rst_n~input_o $end
$var wire 1 ; rst_n~inputclkctrl_outclk $end
$var wire 1 < inst3|Q0|inst~q $end
$var wire 1 = inst3|inst1|inst~combout $end
$var wire 1 > inst3|Q1|inst~q $end
$var wire 1 ? X~input_o $end
$var wire 1 @ inst1|inst1|inst~combout $end
$var wire 1 A inst1|Q0|inst~q $end
$var wire 1 B inst1|inst9|inst~combout $end
$var wire 1 C inst1|Q1|inst~q $end
$var wire 1 D inst2|inst|inst|inst1~0_combout $end
$var wire 1 E inst1|inst7|inst~0_combout $end
$var wire 1 F inst1|Q2|inst~q $end
$var wire 1 G inst|inst|inst~0_combout $end
$var wire 1 H inst4|inst~combout $end
$var wire 1 I inst|inst|inst~q $end
$var wire 1 J inst2|inst4|inst5|inst~0_combout $end
$var wire 1 K inst2|inst4|inst|inst1~combout $end
$var wire 1 L inst|inst1|inst~q $end
$var wire 1 M inst2|inst4|inst5|inst~1_combout $end
$var wire 1 N inst2|inst3|inst|inst1~combout $end
$var wire 1 O inst|inst2|inst~q $end
$var wire 1 P inst2|inst|inst|inst1~1_combout $end
$var wire 1 Q inst|inst3|inst~q $end
$upscope $end
$upscope $end
$enddefinitions $end
#0
$dumpvars
0!
0"
0#
0$
0%
0)
0(
0'
0&
x*
0+
1,
x-
1.
1/
10
01
02
03
04
05
06
07
08
09
0:
0;
0<
0=
0>
0?
1@
0A
0B
0C
0D
0E
0F
0G
1H
0I
0J
0K
0L
0M
0N
0O
0P
0Q
$end
#20000
1!
16
17
0*
#40000
0!
06
07
1*
#60000
1!
16
17
0*
#80000
0!
06
07
1*
#100000
1!
16
17
0*
#120000
0!
06
07
1*
#140000
1!
16
17
0*
#160000
1#
0!
1:
06
1;
07
1*
#180000
1!
16
17
0*
1A
#200000
1"
0!
18
06
07
1*
19
#220000
1!
16
17
0*
1<
0H
#240000
0!
06
07
1*
#260000
1!
16
17
0*
#280000
0!
06
07
1*
#300000
1!
16
17
0*
#320000
0!
06
07
1*
#340000
1!
16
17
0*
#360000
0!
06
07
1*
#380000
1!
16
17
0*
#400000
1$
0!
1?
06
07
1*
1B
0@
#420000
1!
16
17
0*
1C
0A
1@
#440000
0!
06
07
1*
#460000
1!
16
17
0*
1A
1N
1J
1G
1E
1D
0B
0@
1K
1P
#480000
0!
06
07
1*
#500000
1!
16
17
0*
1F
0C
0A
1Q
1O
1L
1I
0J
0D
1M
12
13
14
15
1&
1'
1(
1)
0M
0P
0N
1P
1N
#520000
0!
06
07
1*
#540000
1!
16
17
0*
#560000
0!
06
07
1*
#580000
1!
16
17
0*
#600000
0$
0!
0?
06
07
1*
1@
#620000
1!
16
17
0*
1A
0E
#640000
0!
06
07
1*
#660000
1!
16
17
0*
0F
#680000
0!
06
07
1*
#700000
1!
16
17
0*
#720000
0!
06
07
1*
#740000
1!
16
17
0*
#760000
1$
0!
1?
06
07
1*
1B
0@
#780000
1!
16
17
0*
1C
0A
1@
#800000
0!
06
07
1*
#820000
1!
16
17
0*
1A
0N
1J
0G
1E
1D
0B
0@
1M
1N
#840000
0$
0!
0?
06
07
1*
1@
#860000
1!
16
17
0*
1F
0C
0I
0J
0E
0N
0D
0K
05
0)
0M
1K
0P
1P
1N
#880000
1$
0!
1?
06
07
1*
1E
1B
0@
#900000
1!
16
17
0*
1C
0A
1J
1G
0E
1@
1M
0K
0P
0N
#920000
0!
06
07
1*
#940000
1!
16
17
0*
0F
1A
0Q
0O
0L
1I
0G
1E
1D
0B
0@
02
03
04
15
0&
0'
0(
1)
#960000
0!
06
07
1*
#980000
1!
16
17
0*
1F
0C
0A
0I
0J
1N
0D
0M
1K
05
0)
0K
0N
#1000000
0!
06
07
1*
#1020000
1!
16
17
0*
#1040000
0!
06
07
1*
#1060000
1!
16
17
0*
#1080000
0!
06
07
1*
#1100000
1!
16
17
0*
#1120000
0!
06
07
1*
#1140000
1!
16
17
0*
#1160000
0!
06
07
1*
#1180000
1!
16
17
0*
#1200000
0$
0!
0?
06
07
1*
1@
#1220000
1!
16
17
0*
1A
0E
#1240000
0!
06
07
1*
#1260000
1!
16
17
0*
0F
#1280000
0!
06
07
1*
#1300000
1!
16
17
0*
#1320000
1$
0!
1?
06
07
1*
1B
0@
#1340000
1!
16
17
0*
1C
0A
1@
#1360000
0$
0!
0?
06
07
1*
1E
0B
#1380000
1!
16
17
0*
1F
0C
1A
0E
#1400000
0!
06
07
1*
#1420000
1!
16
17
0*
0F
#1440000
1$
0!
1?
06
07
1*
1B
0@
#1460000
1!
16
17
0*
1C
0A
1@
#1480000
0!
06
07
1*
#1500000
1!
16
17
0*
1A
1N
1J
1G
1E
1D
0B
0@
1K
1P
#1520000
0!
06
07
1*
#1540000
1!
16
17
0*
1F
0C
0A
1Q
1O
1L
1I
0J
0D
1M
12
13
14
15
1&
1'
1(
1)
0M
0P
0N
1P
1N
#1560000
0!
06
07
1*
#1580000
1!
16
17
0*
#1600000
0!
06
07
1*
#1620000
1!
16
17
0*
#1640000
0$
0!
0?
06
07
1*
1@
#1660000
1!
16
17
0*
1A
0E
#1680000
1$
0!
1?
06
07
1*
1E
1B
0@
#1700000
1!
16
17
0*
1C
0A
1J
0G
0E
1@
1M
0P
0N
#1720000
0!
06
07
1*
#1740000
1!
16
17
0*
0F
1A
0Q
0O
0I
1G
1E
1D
0B
0@
0K
02
03
05
0&
0'
0)
#1760000
0!
06
07
1*
#1780000
1!
16
17
0*
1F
0C
0A
0L
1I
0J
1N
0D
04
15
0(
1)
0M
0N
#1800000
0$
0!
0?
06
07
1*
1@
#1820000
1!
16
17
0*
1A
0E
#1840000
0!
06
07
1*
#1860000
1!
16
17
0*
0F
#1880000
0!
06
07
1*
#1900000
1!
16
17
0*
#1920000
0!
06
07
1*
#1940000
1!
16
17
0*
#1960000
1$
0!
1?
06
07
1*
1B
0@
#1980000
1!
16
17
0*
1C
0A
1@
#2000000
0!
06
07
1*
#2020000
1!
16
17
0*
1A
1N
1J
0G
1E
1D
0B
0@
1M
1P
0P
0N
#2040000
0$
0!
0?
06
07
1*
1@
#2060000
1!
16
17
0*
1F
0C
0I
0J
0E
1N
0D
0M
1K
05
0)
0K
0N
#2080000
0!
06
07
1*
#2100000
1!
16
17
0*
0F
#2120000
0!
06
07
1*
#2140000
1!
16
17
0*
#2160000
0!
06
07
1*
#2180000
1!
16
17
0*
#2200000
0!
06
07
1*
#2220000
1!
16
17
0*
#2240000
0!
06
07
1*
#2260000
1!
16
17
0*
#2280000
0!
06
07
1*
#2300000
1!
16
17
0*
#2320000
0!
06
07
1*
#2340000
1!
16
17
0*
#2360000
1$
0!
1?
06
07
1*
1B
0@
#2380000
1!
16
17
0*
1C
0A
1@
#2400000
0!
06
07
1*
#2420000
1!
16
17
0*
1A
1N
1J
1G
1E
1D
0B
0@
1K
1P
#2440000
0!
06
07
1*
#2460000
1!
16
17
0*
1F
0C
0A
1Q
1O
1L
1I
0J
0D
1M
12
13
14
15
1&
1'
1(
1)
0M
0P
0N
1P
1N
#2480000
0!
06
07
1*
#2500000
1!
16
17
0*
#2520000
0!
06
07
1*
#2540000
1!
16
17
0*
#2560000
0!
06
07
1*
#2580000
1!
16
17
0*
#2600000
0$
0!
0?
06
07
1*
1@
#2620000
1!
16
17
0*
1A
0E
#2640000
0"
0!
08
06
07
1*
1=
09
#2660000
1!
16
17
0*
0F
0<
1>
0=
11
1%
#2680000
0!
06
07
1*
#2700000
1!
16
17
0*
0>
1H
01
0%
0I
0L
0O
0Q
0K
0G
0P
0N
05
04
03
02
0)
0(
0'
0&
#2720000
0!
06
07
1*
#2740000
1!
16
17
0*
#2760000
0!
06
07
1*
#2780000
1!
16
17
0*
#2800000
0!
06
07
1*
#2820000
1!
16
17
0*
#2840000
0!
06
07
1*
#2860000
1!
16
17
0*
#2880000
1"
0!
18
06
07
1*
19
#2900000
1!
16
17
0*
1<
0H
#2920000
0!
06
07
1*
#2940000
1!
16
17
0*
#2960000
0!
06
07
1*
#2980000
1!
16
17
0*
#3000000
0!
06
07
1*
#3020000
1!
16
17
0*
#3040000
1$
0!
1?
06
07
1*
1B
0@
#3060000
1!
16
17
0*
1C
0A
1@
#3080000
0!
06
07
1*
#3100000
1!
16
17
0*
1A
1N
1J
1G
1E
1D
0B
0@
1K
1P
#3120000
0!
06
07
1*
#3140000
1!
16
17
0*
1F
0C
0A
1Q
1O
1L
1I
0J
0D
1M
12
13
14
15
1&
1'
1(
1)
0M
0P
0N
1P
1N
#3160000
0$
0!
0?
06
07
1*
1@
#3180000
1!
16
17
0*
1A
0E
#3200000
1$
0!
1?
06
07
1*
1E
1B
0@
#3220000
1!
16
17
0*
1C
0A
1J
0G
0E
1@
1M
0P
0N
#3240000
0$
0!
0?
06
07
1*
1E
0B
#3260000
1!
16
17
0*
0C
1A
0Q
0O
0I
1N
0J
0E
0K
02
03
05
0&
0'
0)
0M
1K
0N
#3280000
1$
0!
1?
06
07
1*
1E
1B
0@
#3300000
1!
16
17
0*
1C
0A
1J
1G
0E
1@
1M
0K
1N
#3320000
0$
0!
0?
06
07
1*
1E
0B
#3340000
1!
16
17
0*
0C
1A
1O
0L
1I
0N
0J
0E
1P
13
04
15
1'
0(
1)
0M
0P
1N
#3360000
0!
06
07
1*
#3380000
1!
16
17
0*
0F
#3400000
0!
06
07
1*
#3420000
1!
16
17
0*
#3440000
0!
06
07
1*
#3460000
1!
16
17
0*
#3480000
0!
06
07
1*
#3500000
1!
16
17
0*
#3520000
0!
06
07
1*
#3540000
1!
16
17
0*
#3560000
0!
06
07
1*
#3580000
1!
16
17
0*
#3600000
0!
06
07
1*
#3620000
1!
16
17
0*
#3640000
1$
0!
1?
06
07
1*
1B
0@
#3660000
1!
16
17
0*
1C
0A
1@
#3680000
0!
06
07
1*
#3700000
1!
16
17
0*
1A
0N
1J
0G
1E
1D
0B
0@
1M
1N
#3720000
0!
06
07
1*
#3740000
1!
16
17
0*
1F
0C
0A
0I
0J
0N
0D
0M
1K
05
0)
0K
1N
#3760000
0!
06
07
1*
#3780000
1!
16
17
0*
#3800000
0!
06
07
1*
#3820000
1!
16
17
0*
#3840000
0!
06
07
1*
#3860000
1!
16
17
0*
#3880000
0!
06
07
1*
#3900000
1!
16
17
0*
#3920000
0!
06
07
1*
#3940000
1!
16
17
0*
#3960000
0!
06
07
1*
#3980000
1!
16
17
0*
#4000000
0!
06
07
1*
#4020000
1!
16
17
0*
#4040000
0!
06
07
1*
#4060000
1!
16
17
0*
#4080000
0!
06
07
1*
#4100000
1!
16
17
0*
#4120000
0!
06
07
1*
#4140000
1!
16
17
0*
#4160000
0$
0!
0?
06
07
1*
1@
#4180000
1!
16
17
0*
1A
0E
#4200000
0!
06
07
1*
#4220000
1!
16
17
0*
0F
#4240000
0!
06
07
1*
#4260000
1!
16
17
0*
#4280000
0!
06
07
1*
#4300000
1!
16
17
0*
#4320000
1$
0!
1?
06
07
1*
1B
0@
#4340000
1!
16
17
0*
1C
0A
1@
#4360000
0$
0!
0?
06
07
1*
1E
0B
#4380000
1!
16
17
0*
1F
0C
1A
0E
#4400000
1$
0!
1?
06
07
1*
1E
1B
0@
#4420000
1!
16
17
0*
1C
0A
1J
1G
0E
1@
1K
#4440000
0$
0!
0?
06
07
1*
1E
0B
#4460000
1!
16
17
0*
0C
1A
1L
1I
0J
0E
1M
14
15
1(
1)
0M
1P
0N
0P
1N
#4480000
0!
06
07
1*
#4500000
1!
16
17
0*
0F
#4520000
0!
06
07
1*
#4540000
1!
16
17
0*
#4560000
0!
06
07
1*
#4580000
1!
16
17
0*
#4600000
0!
06
07
1*
#4620000
1!
16
17
0*
#4640000
0!
06
07
1*
#4660000
1!
16
17
0*
#4680000
0"
0!
08
06
07
1*
1=
09
#4700000
1!
16
17
0*
0<
1>
0=
11
1%
#4720000
0!
06
07
1*
#4740000
1!
16
17
0*
0>
1H
01
0%
0I
0L
0O
0K
0G
0N
05
04
03
0)
0(
0'
#4760000
0!
06
07
1*
#4780000
1!
16
17
0*
#4800000
0!
06
07
1*
#4820000
1!
16
17
0*
#4840000
0!
06
07
1*
#4860000
1!
16
17
0*
#4880000
0!
06
07
1*
#4900000
1!
16
17
0*
#4920000
0!
06
07
1*
#4940000
1!
16
17
0*
#4960000
0!
06
07
1*
#4980000
1!
16
17
0*
